…
## *select()* y *filter()*

Este es un recordatorio de que en dplyr, se filtran CASOS, es decir,
líneas o renglones, y se seleccionan VARIABLES.

Por ejemplo:

``` r
ags_t321 %>% 
  dplyr::select(sex, eda) %>% 
  dplyr::filter(eda>11)
```

    ## # A tibble: 10,029 × 2
    ##           sex   eda
    ##     <dbl+lbl> <dbl>
    ##  1 2 [Mujer]     26
    ##  2 1 [Hombre]    34
    ##  3 2 [Mujer]     29
    ##  4 1 [Hombre]    56
    ##  5 1 [Hombre]    34
    ##  6 2 [Mujer]     18
    ##  7 2 [Mujer]     27
    ##  8 2 [Mujer]     51
    ##  9 1 [Hombre]    20
    ## 10 2 [Mujer]     28
    ## # … with 10,019 more rows
…
